<htmL>
    <head>
        <link href="https://fonts.googleapis.com/css?family=Slabo+27px" rel="stylesheet">
    </head>
    <body>
        <section>
            <form name="mylogin" action="">
                <table align="center" border="0" cellpadding="4" cellspacing="4">
                  <tr align="center" valign="top">
                    <td>
                      <p align="center"><font size="5"><b>Form Pembelian Buah</b></font></p>
                      <table align="center" border="0">
            
                        <tr align="left">
                          <td><b>Nama Pelanggan</b></td>
                          <td><input type="text" name="nama_pelanggan" size="30"></td>
                        </tr>
            
                        <tr align="left">
                          <td  style="vertical-align:bottom"><b>Daftar Item<br></b></td>
                          <td>
                            <input name="semangka" type="checkbox">Semangka<br>
                            <input name="jeruk" type="checkbox">Jeruk<br>
                            <input name="nanas" type="checkbox">Nanas<br>
                            <input name="salak" type="checkbox">Salak<br>
                            <input name="anggur" type="checkbox">Anggur<br>
                          </td>
                        </tr>
                      </table>
                    </td>
                  </tr>
            
                  <tr>
                    <td colspan="2" align="left">
                      <input style="border-radius: 15px;" value="Kirim" type="submit">
                    </td>
                  </tr>
                </table>
              </form>
        </section>  
    </body>
</htmL>

function luaslingkaran(par) { 
    var jari2 = parseFloat(par);
    if(isNaN(jari2)){ 
        jari2=0.0;
        
    } 

    var hasil = 3.14*jari2*jari2; 
    return hasil;
}

function luassegitiga(alas,tinggi){
    luas=(alas*tinggi)*0.5;
    return luas;

    }

function luaspersegi(panjang,lebar){
    luas = panjang*lebar;
    return luas;
}    

daftarAlatTulis.sort();
string = '';
a=0 ;
while(a < daftarAlatTulis.length ){
    string += daftarAlatTulis[a]+'\n';
    a++;
}

function tampilkanBintang(jumlahbintang){
    for(x=jumlahbintang;x >= 1;x--){
        string = '';
        for(y =1;y <= x;y++){
            string += '*';
        }
        console.log(string)
    }
}

tampilkanBintang(4);

var jenisKelamin = 'L';
var nama = 'asd';

if(nama != ''){
    if(jenisKelamin == 'L'){
        console.log('Bapak '+nama);
    }else if(jenisKelamin == 'P'){
        console.log('Ibu '+nama);
    }else{
        console.log('Jenis Kelamin Tidak Di isi');
    }
}else{
    console.log('Nama Tidak Di isi');
}

